#166 - Schwyz | 

owner = A01
controller = A01
add_core = A01
add_core = A68
culture = redfoot_halfling
religion = regent_court

hre = no

base_tax = 2
base_production = 4
base_manpower = 2

trade_goods = grain
capital = ""

is_city = yes








