owner = A06
controller = A06
add_core = A06
culture = cliff_gnome
religion = the_thought

hre = no

base_tax = 2
base_production = 2
base_manpower = 2

trade_goods = fish
capital = ""

is_city = yes







