#191 - Nevers | 

owner = A24
controller = A24
add_core = A24
culture = moorman
religion = regent_court

hre = no

base_tax = 3
base_production = 2
base_manpower = 2

trade_goods = cloth

capital = ""

is_city = yes








