#338 - Mitidja |

owner = A13
controller = A13
add_core = A13
culture = gawedi
religion = regent_court

hre = no

base_tax = 2
base_production = 2
base_manpower = 3

trade_goods = livestock

capital = ""

is_city = yes








