#491 - Curacao

owner = F02
controller = F02
add_core = F02
add_core = F01
culture = kheteratan
religion = khetist

hre = no

base_tax = 1
base_production = 2
base_manpower = 2

trade_goods = ivory

capital = ""

is_city = yes










