#These are Arakeprun missions

arakeprun1_missions = { 
	slot = 1 
	generic = no
	ai = yes 
	has_country_shield = yes
	potential = {
		tag = H01
	}
	
	
	
	h01_ruins_of_greatness = { 
		icon = mission_city_of_victory_vij
		required_missions = {  }
		position = 1
		provinces_to_highlight = {
			province_id = 2007
		}
		trigger = {
			2007 = {
				has_tax_building_trigger = yes
			}
		}
		effect = { 
			increase_legitimacy_medium_effect = yes
			add_prestige = 10
		}
	}
	h01_splendor_of_spring_court = {
		icon = mission_dharma_mission_the_riches_of_india
		required_missions = {
			h01_tools_of_ancestors
		}
		position = 3
		provinces_to_highlight = {
			province_id = 2007
		}
		trigger = {
			2007 = {
				development = 24
			}
		}
		effect = {
			add_country_modifier = {name = "arakeprun_splendor_of_spring_court" duration = 5475}
		}
	}
	h01_protector_of_selpheregi = {
		icon = mission_rb_rein_in_the_highland_clans
		required_missions = {
			h01_splendor_of_spring_court
		}
		position = 4
		provinces_to_highlight = {
			AND = {
				superregion = eordand_superregion
				culture = selphereg
				NOT = { owned_by = ROOT }
			}
			NOT = {
				country_or_non_sovereign_subject_holds = ROOT
			}
		}
		trigger = {
			custom_trigger_tooltip = {
				tooltip = EORDAND_PROTECTOR
				NOT = {
					eordand_superregion = {
						culture = selphereg
						NOT = { owned_by = ROOT }
					}
				}
			}
		}
		effect = {
			add_country_modifier = {name = "arakeprun_protector_of_the_spring_court" duration = 5475}
			pelodard_area = {
				limit = {
					NOT = { is_core = ROOT }
					NOT = { is_permanent_claim = ROOT }
				}
				add_permanent_claim = ROOT
			}
		}
	}
	h01_pretenders_of_pelomar = {
		icon = mission_rb_unite_the_clans
		required_missions = {h01_protector_of_selpheregi}
		position = 5
		provinces_to_highlight = {
			province_id = 2049
		}
		trigger = {
			owns_core_province = 2049
			NOT = { exists = H08 }
		}
		effect = {
			drisleak_area = {
				limit = {
					NOT = { is_core = ROOT }
					NOT = { is_permanent_claim = ROOT }
				}
				add_permanent_claim = ROOT
			}
			sidmargbal_area = {
				limit = {
					NOT = { is_core = ROOT }
					NOT = { is_permanent_claim = ROOT }
				}
				add_permanent_claim = ROOT
			}
			country_event = { id = eordand.3 }
		}
	}
	h01_sidpar_wards_restored = {
		icon = mission_great_wall
		required_missions = { h01_pretenders_of_pelomar }
		position = 6
		provinces_to_highlight = {
			province_id = 2041
		}
		trigger = {
			owns_core_province = 2041
			NOT = {exists = H06}
			2041 = {
				development = 15
				has_trade_building_trigger = yes
				has_fort_building_trigger = yes
			}
		}
		effect = {
			murdkather_area = {
				limit = {
					NOT = { is_core = ROOT }
					NOT = { is_permanent_claim = ROOT }
				}
				add_permanent_claim = ROOT
			}
			serakriok_area = {
				limit = {
					NOT = { is_core = ROOT }
					NOT = { is_permanent_claim = ROOT }
				}
				add_permanent_claim = ROOT
			}
			dearktir_area = {
				limit = {
					NOT = { is_core = ROOT }
					NOT = { is_permanent_claim = ROOT }
				}
				add_permanent_claim = ROOT
			}
			2041 = {
				center_of_trade = 1
			}
		}
	}
	h01_conquest_of_the_summer_city = {
		icon = mission_growth_of_surat
		required_missions = { h01_sidpar_wards_restored }
		position = 7
		provinces_to_highlight = {
			province_id = 2037
		}
		trigger = {
			owns_core_province = 2037
			NOT = {exists = H02}
			OR = {
				accepted_culture = caamas
				government_rank = 3
			}
		}
		effect = {
			2037 = {
				add_permanent_province_modifier = { name = "arakeprun_elarbarc_shipyards" duration = -1 }
			}
		}
	}
				
	
	
}
arakeprun2_missions = {
	slot = 2
	generic = no
	ai = yes 
	has_country_shield = yes
	potential = {
		tag = H01
	} #These are triggers for the entire series
	
	h01_tools_of_ancestors = {
		icon = mission_industrialize_bengal
		required_missions = {
			h01_ruins_of_greatness
			h01_treachery_of_elchos
		}
		position = 2
		provinces_to_highlight = {
			OR = {
				province_id = 2026
				province_id = 2036
			}
		}
		trigger = {
			owns_core_province = 2026
			owns_core_province = 2036
			2026 = {
				base_production = 5
			}
			2036 = {
				base_production = 5
			}
		}
		effect = {
			2007 = {
				remove_province_modifier = arakeprun_precursor_tool_deprivation
			}
			hidden_effect = { set_country_flag = eordand_rebuilt_arakeprun }
		}
	}
	h01_spring_court_victorious = {
		icon = mission_restore_faith_in_the_throne
		required_missions = {
			h01_conquest_of_the_summer_city
			h01_envelop_the_jhorgashirran
		}
		position = 8
		provinces_to_highlight = {
			AND = {
				superregion = eordand_superregion
				culture = selphereg
			}
		}
		trigger = {
			custom_trigger_tooltip = {
				tooltip = EORDAND_SPRING_VICTORIOUS
				development_in_provinces = {
					value = 133
					culture = selphereg
				}
			}
		}
		effect = {
			add_country_modifier = { name = "eor_spring_equinox" duration = 18250 }
			add_splendor = 50
			add_government_reform = magocracy_reform
			if = {
				limit = {
					NOT = { government_rank = 2 }
				}
				set_government_rank = 2
			}
			else = {
				add_stability_or_adm_power = yes
				change_government_reform_progress = 100
			}
		}
			
	}
}
arakeprun3_missions = {
	slot = 3
	generic = no
	ai = yes 
	has_country_shield = yes
	potential = {
		tag = H01
	} #These are triggers for the entire series
	
	h01_treachery_of_elchos = {
		icon = mission_crush_delhi
		required_missions = {  }
		position = 1
		provinces_to_highlight = {
			province_id = 2008
		}
		trigger = {
			2008 = {
				owned_by = ROOT
			}
			NOT = { exists = H04 }
		}
		effect = {
			2008 = { add_core = ROOT }
			2008 = {
				add_base_tax = -1
				add_base_production = -1
				add_base_manpower = -1
			}
			add_years_of_income = 0.75
		}
	}
	h01_seize_the_autumn_court = {
		icon = mission_raid_on_venice
		required_missions = { h01_tools_of_ancestors }
		position = 3
		provinces_to_highlight = {
			province_id = 2159
		}
		trigger = {
			2159 = {
				owned_by = H01
			}
			NOT = { exists = H10 }
		}
		effect = {
			add_country_modifier = {name = "arakeprun_seizure_of_einnsag" duration = 5475}
			iadth_area = {
				limit = {
					NOT = { is_core = ROOT }
					NOT = { is_permanent_claim = ROOT }
				}
				add_permanent_claim = ROOT
			}
			sglolad_area = {
				limit = {
					NOT = { is_core = ROOT }
					NOT = { is_permanent_claim = ROOT }
				}
				add_permanent_claim = ROOT
			}
			raithlos_area = {
				limit = {
					NOT = { is_core = ROOT }
					NOT = { is_permanent_claim = ROOT }
				}
				add_permanent_claim = ROOT
			}
		}
	}
	h01_foghar_under_arrag = {
		icon = mission_rb_control_electors
		required_missions = { h01_seize_the_autumn_court }
		position = 4
		provinces_to_highlight = {
			OR = {
				area = iadth_area
				area = sglolad_area
				area = raithlos_area
			}
		}
		trigger = {
				iadth_area = {
					type = all
					country_or_non_sovereign_subject_holds = ROOT
				}
				sglolad_area = {
					type = all
					country_or_non_sovereign_subject_holds = ROOT
				}
				raithlos_area = {
					type = all
					country_or_non_sovereign_subject_holds = ROOT
				}
			OR = {
				accepted_culture = tuathak
				government_rank = 3
			}
		}
		effect = {
			tamharcroc_area = {
				limit = {
					NOT = { is_core = ROOT }
					NOT = { is_permanent_claim = ROOT }
				}
				add_permanent_claim = ROOT
			}
			fogharbac_area = {
				limit = {
					NOT = { is_core = ROOT }
					NOT = { is_permanent_claim = ROOT }
				}
				add_permanent_claim = ROOT
			}
			add_country_modifier = {
				name = "tuathak_drills"
				duration = 5475
			}
		}	
	}
	f01_borders_of_winter = {
		icon = mission_duel_snow
		required_missions = { h01_foghar_under_arrag }
		position = 5
		provinces_to_highlight = {
			province_id = 1969
		}
		trigger = {
			owns_core_province = 1969
			NOT = { exists = H14}
			1969 = {
				has_fort_building_trigger = yes
				base_manpower = 6
			}
		}
		effect = {
			add_country_modifier = {name = "arakeprun_warmth_of_the_last_days" duration = 5475}
			jhorgashirr_area = {add_permanent_claim = ROOT}
			gemradcurt_area = {add_permanent_claim = ROOT}
			medhan_area = {add_permanent_claim = ROOT}
		}
	}
	f01_quell_the_blizzard = {
		icon = mission_protect_white_sea_trade
		required_missions = { f01_borders_of_winter }
		position = 6
		provinces_to_highlight = {
			province_id = 1775
		}
		trigger = {
			owns_core_province = 1775
			NOT = { exists = H16 }
			1775 = {
				NOT = { local_autonomy = 25 }
			}
		}
		effect = {
			gemradcurt_area = {
				add_permanent_province_modifier = {
					name = "arakeprun_thawing_of_glaciers"
					duration = -1
				}
			}
		}
	}
	h01_envelop_the_jhorgashirran = {
		icon = mission_conquer_50_development
		required_missions = { f01_quell_the_blizzard }
		position = 7
		provinces_to_highlight = {
			province_id = 1965
		}
		trigger = {
			owns_core_province = 1965
			NOT = { exists = H13 }
			land_forcelimit = 30
		}
		effect = {
			add_country_modifier = {name = "randrunnse_trade" duration = 5475}
			galbhan_area = {add_permanent_claim = ROOT}
			trimgarb_area = {add_permanent_claim = ROOT}
		}
	}
			
				
			
}
arakeprun4_missions = {
	slot = 4
	generic = no
	ai = yes 
	has_country_shield = yes
	potential = {
		tag = H01
	} #These are triggers for the entire series
	
	h01_restore_glorelthiran_guard = {
		icon = mission_swear_fealty_knight
		required_missions = {  }
		position = 1
		trigger = {
			army_size_percentage = 0.85
			navy_size_percentage = 0.85
		}
		effect = {
			add_country_modifier = {name = "arakeprun_glorelthiran_guard" duration = 9125}
		}
	}
	h01_prepare_for_southern_eordellonian_expedition = {
		icon = mission_look_west
		required_missions = { h01_restore_glorelthiran_guard }
		position = 2
		trigger = {
			OR = {
				num_of_missionaries = 2
				num_of_colonists = 1
			}
		}
		effect = {
			create_explorer = {
				tradition = 50
			}
			add_country_modifier = { name = "arakeprun_expedition_preparation" duration = 3650 }
			country_event = {
				id = eordand.4
				days = 3650
				tooltip = EORDAND_EXPEDITION_PREPARATION
			}
		}
	}
	h01_convert_the_fograc = {
		icon = mission_colonise_brazil
		required_missions = { h01_prepare_for_southern_eordellonian_expedition }
		position = 3
		provinces_to_highlight = {
			OR = {
				province_id = 2056
				province_id = 2055
				province_id = 2054
			}
		}
		trigger = {
			owns_core_province = 2056
			2056 = { has_owner_religion = yes }
			owns_core_province = 2055
			2055 = { has_owner_religion = yes }
			owns_core_province = 2054
			2054 = { has_owner_religion = yes }
		}
				
		effect = {
			add_country_modifier = { name = "arakeprun_integration_of_the_fograc" duration = 5475 }
			2056 = {
				add_base_production = 1
			}
			2055 = {
				add_base_production = 1
			}
		}
	}
	
	h01_whispers_among_the_sands = {
		icon = mission_conquer_air
		required_missions = { h01_convert_the_fograc }
		position = 4
		provinces_to_highlight = {
			province_id = 2060
		}
		trigger = {
			owns_core_province = 2060
			2060 = {
				development = 8
			}
			years_of_income = 1.25
		}
		effect = {
			country_event = {
				id = eordand.5
				days = 365
			}
			add_years_of_income = -1.25
		}
	}
	
	h01_unearthed_knowledge_of_cadcimn = {
		icon = mission_treasure_room
		required_missions = { h01_whispers_among_the_sands }
		position = 5
		provinces_to_highlight = {
			province_id = 2060
		}
		trigger = {
			2060 = {
				development = 20
				has_production_building_trigger = yes
			}
			adm_tech = 10
			years_of_income = 1.75
		}
		effect = {
			country_event = {
				id = eordand.6
				days = 360
			}
			add_years_of_income = -1.75
			2060 = {
				add_base_tax = 1
				add_base_production = 2
				add_base_manpower = 1
		}
		}
	
	}
}

arakeprun5_missions = {
	slot = 5
	generic = no
	ai = yes 
	has_country_shield = yes
	potential = {
		tag = H01
	}
	
	h01_dawnfires_gambit = {
		icon = mission_priest_church
		required_missions = { }
		position = 1
		
		trigger = {
			custom_trigger_tooltip = {
				tooltip = EORDAND_Filnar
				ruler_has_personality = mage_personality
				has_ruler_flag = conjuration_3
			}
				owns_core_province = 2009 
				2009 = {
					base_production = 5
					base_tax = 5
				}
				years_of_income = 2
				estate_loyalty = {
					estate = estate_mages
					loyalty = 65
				}
			}
		effect = {
			country_event = { id = eordand.8 }
			add_ruler_modifier = { name = "eor_damestear_summoner" duration = -1 }
			add_years_of_income = -2
			
		}
	}
	h01_darhan_blossoming = {
		icon = mission_colonial
		required_missions = { }
		position = 2
		
		provinces_to_highlight = {
			area = darhan_area
			NOT = {
				development = 10
			}
		}
		trigger = {
			num_of_owned_provinces_with = {
				area = darhan_area
				development = 10
				value = 3
			}
		}
		effect = {
			darhan_area = {
				add_province_modifier = { name = "eor_darhan_blossoming" duration = 3650 }
			}
		}
	}
	h01_darhan_textiles = {
		icon = mission_wine_monopolies
		required_missions = { h01_darhan_blossoming }
		position = 3
		
		provinces_to_highlight = {
			province_id = 2004
			province_id = 2025
		}
		trigger = {
			2004 = {
				base_production = 8
				has_production_building_trigger = yes
			}
			2025 = {
				base_production = 8
				has_production_building_trigger = yes
			}
		}
		effect = {
			2004 = { add_province_modifier = { name = "eor_textiles" duration = 3650 } }
			2025 = { add_province_modifier = { name = "eor_textiles" duration = 3650 } }
			2007 = { add_province_modifier = { name = "eor_textiles" duration = 3650 } }
			2007 = { change_trade_goods = cloth }
		}
	}
	h01_celebration_of_a_new_spring = {
		icon = mission_steer_trade_to_bengal
		required_missions = { h01_darhan_textiles }
		position = 4
		
		trigger = {
			2004 = { has_manufactory_trigger = yes }
			2025 = { has_trade_building_trigger = yes }
			2007 = { has_courthouse_building_trigger = yes }
		}
		effect = {
			if = {
				limit = {
					OR = {
						AND = {
							is_institution_enabled = renaissance
							NOT = { has_institution = renaissance }
						}
						AND = {
							is_institution_enabled = new_world_i
							NOT = { has_institution = new_world_i }
						}
						AND = {
							is_institution_enabled = printing_press
							NOT = { has_institution = printing_press }
						}
						AND = {
							is_institution_enabled = printing_press
							NOT = { has_institution = printing_press }
						}
						AND = {
							is_institution_enabled = global_trade
							NOT = { has_institution = global_trade }
						}
						AND = {
							is_institution_enabled = manufactories
							NOT = { has_institution = manufactories }
						}
						AND = {
							is_institution_enabled = enlightenment
							NOT = { has_institution = enlightenment }
						}
					}
				}
				capital_scope = {
					area = {
						add_next_institution_embracement = 25
					}
				}
			}
		add_country_modifier = { name = "eor_spring_celebrations" duration = 5475 }
		}
	}
}
	



