
namespace = flavor_esmari

#River Party start
country_event = {
	id = flavor_esmari.1
	title = flavor_esmari.1.t
	desc = flavor_esmari.1.d
	picture = SHIP_SAILING_eventPicture
	
	trigger = {
		OR = {
			capital_scope = {region = esmaria_region}
		}
		NOT = {
			has_country_flag = river_party_start
			has_country_modifier = river_party_aftermath 
		}
	}
	
	mean_time_to_happen = { 
		months = 3
	}
	
	option = {
		name = "flavor_esmari.1.a"			
		set_country_flag = river_party_start
		
		hidden_effect = {
			country_event = { id = flavor_esmari.43 days = 730 }	#for now
		}
	}
}
#Ruler killed in party 
country_event = {
	id = flavor_esmari.2
	title = flavor_esmari.2.t
	desc = flavor_esmari.2.d
	picture = SHIP_SAILING_eventPicture
	
	trigger = {
		has_country_flag = river_party_start
		is_at_war = no
	}
	
	mean_time_to_happen = {
		months = 1200
	}
	
	option = {
		name = "flavor_esmari.2.a"
		kill_ruler = yes
	}
}
#Heir killed in party
country_event = {
	id = flavor_esmari.3
	title = flavor_esmari.3.t
	desc = flavor_esmari.3.d
	picture = SHIP_SAILING_eventPicture
	
	trigger = {
		has_country_flag = river_party_start
		is_at_war = no
		NOT = {
			heir_age = 15
		}
	}
	
	mean_time_to_happen = {
		months = 480
		modifier = {
			factor = 0.25
			OR = {
				heir_has_personality = drunkard_personality
				heir_has_personality = sinner_personality
				heir_has_personality = charismatic_negotiator_personality
				heir_has_personality = silver_tongue_personality
			}
		}
	}
	
	option = {
		name = "flavor_esmari.3.a"
		kill_heir = yes
	}
}
#Procreated new heir at the party
country_event = {
	id = flavor_esmari.4
	title = flavor_esmari.4.t
	desc = flavor_esmari.4.d
	picture = SHIP_SAILING_eventPicture
	
	trigger = {
		has_country_flag = river_party_start
		has_heir = no
		NOT = { government = republic }
	}
	
	mean_time_to_happen = {
		months = 72
		
		modifier = {
			factor = 1.75
			ruler_has_personality = infertile_personality
		}
		modifier = {
			factor = 0.75
			ruler_has_personality = fertile_personality
		}
	}
	
	option = {
		name = "flavor_esmari.4.a"
		define_heir = {
			dynasty = ROOT
			no_consort_with_heir = yes
			claim = 25
		}
	}
	option = {
		name = "flavor_esmari.4.b"
	}
}
#Gain advisor (skill 2)
country_event = {
	id = flavor_esmari.5
	title = flavor_esmari.5.t
	desc = flavor_esmari.5.d
	picture = SHIP_SAILING_eventPicture
	
	trigger = {
		has_country_flag = river_party_start
		NOT = {
			OR = {
				ruler_has_personality = well_connected_personality
				ruler_has_personality = well_advised_personality
			}
		}
	}
	
	mean_time_to_happen = {
		months = 72
	}
	
	option = {
		name = "flavor_esmari.5.a"
		random_list = {
			10 = {
				define_advisor = {
				type = treasurer
				discount = yes
				skill = 2
				}
			}
			10 = {
				define_advisor = {
					type = philosopher
					discount = yes
					skill = 2
				}
			}
			10 = {	
				define_advisor = {
					type = statesman
					discount = yes
					skill = 2
				}
			}
			10 = {
				define_advisor = {
					type = spymaster
					discount = yes
					skill = 2
				}
			}
			10 = {
				define_advisor = {
					type = trader
					discount = yes
					skill = 2
				}
			}
			10 = {
				define_advisor = {
					type = commandant
					discount = yes
					skill = 2
				}
			}
			10 = {
				define_advisor = {
					type = artist
					discount = yes
					skill = 2
				}
			}
			10 = {
				define_advisor = {
					type = army_organiser
					discount = yes
					skill = 2
				}
			}
			10 = {
				define_advisor = {
					type = quartermaster
					discount = yes
					skill = 2
				}
			}
			10 = {
				define_advisor = {
					type = diplomat
					discount = yes
					skill = 2
				}
			}	
		}
	}
	option = {
		name = "flavor_esmari.5.b"
		add_prestige = 5
	}
}
#Gain advisor (Skill 3)
country_event = {
	id = flavor_esmari.6
	title = flavor_esmari.6.t
	desc = flavor_esmari.6.d
	picture = SHIP_SAILING_eventPicture
	
	trigger = {
		has_country_flag = river_party_start
		OR = {
			ruler_has_personality = well_connected_personality
			ruler_has_personality = well_advised_personality
		}
	}
	
	mean_time_to_happen = {
		months = 72
	}
	
	option = {
		name = "flavor_esmari.6.a"
		random_list = {
			10 = {
				define_advisor = {
				type = treasurer
				discount = yes
				skill = 3
				}
			}
			10 = {
				define_advisor = {
					type = philosopher
					discount = yes
					skill = 3
				}
			}
			10 = {	
				define_advisor = {
					type = statesman
					discount = yes
					skill = 3
				}
			}
			10 = {
				define_advisor = {
					type = spymaster
					discount = yes
					skill = 3
				}
			}
			10 = {
				define_advisor = {
					type = trader
					discount = yes
					skill = 3
				}
			}
			10 = {
				define_advisor = {
					type = commandant
					discount = yes
					skill = 3
				}
			}
			10 = {
				define_advisor = {
					type = artist
					discount = yes
					skill = 3
				}
			}
			10 = {
				define_advisor = {
					type = army_organiser
					discount = yes
					skill = 3
				}
			}
			10 = {
				define_advisor = {
					type = quartermaster
					discount = yes
					skill = 3
				}
			}
			10 = {
				define_advisor = {
					type = diplomat
					discount = yes
					skill = 3
				}
			}	
		}
	}
	option = {	
		name = "flavor_esmari.6.b"
		add_prestige = 5
	}
}
#Party destroys capital
country_event = {
	id = flavor_esmari.7
	title = flavor_esmari.7.t
	desc = flavor_esmari.7.d
	picture = SHIP_SAILING_eventPicture
	
	trigger = {
		has_country_flag = river_party_start
		NOT = {
			OR = {
				ruler_has_personality = strict_personality
				ruler_has_personality = tactical_genius_personality
				ruler_has_personality = navigator_personality
			}
		}
	}
	
	mean_time_to_happen = {
		months = 72
	}
	
	option = {
		name = "flavor_esmari.7.a"
		capital_scope = { add_devastation = 5 }
	}
}
#Capital saved from devastation by heroic ruler
country_event = {
	id = flavor_esmari.8
	title = flavor_esmari.8.t
	desc = flavor_esmari.8.d
	picture = SHIP_SAILING_eventPicture
	
	trigger = {
		has_country_flag = river_party_start
		OR = {
			ruler_has_personality = strict_personality
			ruler_has_personality = tactical_genius_personality
			ruler_has_personality = navigator_personality	
		}
	}

	mean_time_to_happen = {
		months = 72
	}

	option = {
		name = "flavor_esmari.8.a"
		add_prestige = 20
		increase_legitimacy_large_effect = yes
	}
}
#Capital saved from devastation by heroic heir
country_event = {
	id = flavor_esmari.9
	title = flavor_esmari.9.t
	desc = flavor_esmari.9.d
	picture = SHIP_SAILING_eventPicture
	
	trigger = {
		has_country_flag = river_party_start
		has_heir = yes
		OR = {
			heir_has_personality = strict_personality
			heir_has_personality = tactical_genius_personality
			heir_has_personality = navigator_personality
		}
	}

	mean_time_to_happen = {
		months = 72
	}

	option = {
		name = "flavor_esmari.9.a"
		add_prestige = 20
		add_heir_claim = 50
	}
}
#Insult at party (mild)
country_event = {
	id = flavor_esmari.10
	title = flavor_esmari.10.t
	desc = flavor_esmari.10.d
	picture = SHIP_SAILING_eventPicture
	
	trigger = {
		has_country_flag = river_party_start
		NOT = {
			OR = {
				ruler_has_personality = malevolent_personality
				ruler_has_personality = naive_personality
				ruler_has_personality = babbling_buffoon_personality	
			}
		}
	}
	
	mean_time_to_happen = {
		months = 72
	}
	
	option = {
		name = "flavor_esmari.10.a"
		random_country = {
			limit = {
				primary_culture = esmari
			}
			add_opinion = { who = ROOT modifier = party_insult_mild }
		}
	}
}
#Insult at party (severe)
country_event = {
	id = flavor_esmari.11
	title = flavor_esmari.11.t
	desc = flavor_esmari.11.d
	picture = SHIP_SAILING_eventPicture
	
	trigger = {
		has_country_flag = river_party_start
		OR = {
			ruler_has_personality = malevolent_personality
			ruler_has_personality = naive_personality
			ruler_has_personality = babbling_buffoon_personality	
		}
	}
	
	mean_time_to_happen = {
		months = 72
	}
	
	option = {
		name = "flavor_esmari.11.a"
		random_country = {
			limit = {
				primary_culture = esmari
			}
			add_opinion = { who = ROOT modifier = party_insult_severe }
		}
	}
}
#Relation improved at party (mild)
country_event = {
	id = flavor_esmari.12
	title = flavor_esmari.12.t
	desc = flavor_esmari.12.d
	picture = SHIP_SAILING_eventPicture
	
	trigger = {
		has_country_flag = river_party_start
		NOT = {
			OR = {
				ruler_has_personality = benevolent_personality
				ruler_has_personality = charismatic_negotiator_personality
				ruler_has_personality = silver_tongue_personality	
			}
		}
	}
	
	mean_time_to_happen = {
		months = 72
	}
	
	option = {
		name = "flavor_esmari.12.a"
		random_country = {
			limit = {
				primary_culture = esmari
			}
			add_opinion = { who = ROOT modifier = party_compliment_mild }
		}
	}
}
#Relations improved at party (huge)
country_event = {
	id = flavor_esmari.13
	title = flavor_esmari.13.t
	desc = flavor_esmari.13.d
	picture = SHIP_SAILING_eventPicture
	
	trigger = {
		has_country_flag = river_party_start
		OR = {
			ruler_has_personality = benevolent_personality
			ruler_has_personality = charismatic_negotiator_personality
			ruler_has_personality = silver_tongue_personality		
		}
	}
	
	mean_time_to_happen = {
		months = 72
	}
	
	option = {
		name = "flavor_esmari.13.a"
		random_country = {
			limit = {
				primary_culture = esmari
			}
			add_opinion = { who = ROOT modifier = party_compliment_huge }
		}
	}
}
#Prosperity increase (small)
country_event = {
	id = flavor_esmari.14
	title = flavor_esmari.14.t
	desc = flavor_esmari.14.d
	picture = SHIP_SAILING_eventPicture
	
	trigger = {
		has_country_flag = river_party_start
		NOT = {
			OR = {
				ruler_has_personality = midas_touched_personality
				ruler_has_personality = industrious_personality
				ruler_has_personality = just_personality
			}
		}
	}
	
	mean_time_to_happen = {
		months = 72
	}
	
	option = {
		name = "flavor_esmari.14.a"
		capital_scope = { add_prosperity = 5 }
	}
}
#Prosperity increase (big)
country_event = {
	id = flavor_esmari.15
	title = flavor_esmari.15.t
	desc = flavor_esmari.15.d
	picture = SHIP_SAILING_eventPicture
	
	trigger = {
		has_country_flag = river_party_start
		OR = {
			ruler_has_personality = midas_touched_personality
			ruler_has_personality = industrious_personality
			ruler_has_personality = just_personality
		}
	}
	
	mean_time_to_happen = {
		months = 72
	}
	
	option = {
		name = "flavor_esmari.15.a"
		capital_scope = { add_prosperity = 10 }
	}
}
#Party completely trashes capital
country_event = {
	id = flavor_esmari.16
	title = flavor_esmari.16.t
	desc = flavor_esmari.16.d
	picture = SHIP_SAILING_eventPicture
	
	trigger = {
		has_country_flag = river_party_start
		NOT = {
			OR = {
				ruler_has_personality = strict_personality
				ruler_has_personality = tactical_genius_personality
				ruler_has_personality = navigator_personality
			}
		}
	}
	
	mean_time_to_happen = {
		months = 36
	}
	
	option = {
		name = "flavor_esmari.16.a"
		capital_scope = { add_devastation = 10 }
	}
}
#Vassal decrease in LD (Low)
country_event = {
	id = flavor_esmari.17
	title = flavor_esmari.17.t
	desc = flavor_esmari.17.d
	picture = SHIP_SAILING_eventPicture
	
	trigger = {
		has_country_flag = river_party_start
		any_neighbor_country = {
			is_subject_of = ROOT
			OR = {
				primary_culture = esmari
			}
		}
	}
	
	mean_time_to_happen = {
		months = 72
	}
	
	option = {
		name = "flavor_esmari.17.a"
		ROOT = {
			every_subject_country = {
				limit = {
					OR = {
						primary_culture = esmari
					}
				}
				add_liberty_desire = -5
			}
		}
	}
}
#Vassal increase in LD (Low)
country_event = {
	id = flavor_esmari.18
	title = flavor_esmari.18.t
	desc = flavor_esmari.18.d
	picture = SHIP_SAILING_eventPicture
	
	trigger = {
		has_country_flag = river_party_start
		any_neighbor_country = {
			is_subject_of = ROOT
			OR = {
				primary_culture = esmari
			}
		}
	}
	
	mean_time_to_happen = {
		months = 72
	}
	
	option = {
		name = "flavor_esmari.18.a"
		ROOT = {
			every_subject_country = {
				limit = {
					OR = {
						primary_culture = esmari
					}
				}
				add_liberty_desire = 5
			}
		}
	}
}
#Vassal decrease in LD (High)
country_event = {
	id = flavor_esmari.19
	title = flavor_esmari.19.t
	desc = flavor_esmari.19.d
	picture = SHIP_SAILING_eventPicture
	
	trigger = {
		has_country_flag = river_party_start
		any_neighbor_country = {
			is_subject_of = ROOT
			NOT = { 
				primary_culture = esmari 
			}
		}
	}
	
	mean_time_to_happen = {
		months = 72
	}
	
	option = {
		name = "flavor_esmari.19.a"
		ROOT = {
			every_subject_country = {
				limit = {
					NOT = { 
						primary_culture = esmari 
					}
				}
				add_liberty_desire = -10
			}
		}
	}
}
#Vassal increase in LD (High)
country_event = {
	id = flavor_esmari.20
	title = flavor_esmari.20.t
	desc = flavor_esmari.20.d
	picture = SHIP_SAILING_eventPicture
	
	trigger = {
		has_country_flag = river_party_start
		any_neighbor_country = {
			is_subject_of = ROOT
			NOT = { 
				primary_culture = esmari 
			}
		}
	}
	
	mean_time_to_happen = {
		months = 72
	}
	
	option = {
		name = "flavor_esmari.20.a"
		ROOT = {
			every_subject_country = {
				limit = {
					NOT = { 
						primary_culture = esmari
					}
				}
				add_liberty_desire = 10
			}
		}
	}
}
#ADM bonus 1
country_event = {
	id = flavor_esmari.21
	title = flavor_esmari.21.t
	desc = flavor_esmari.21.d
	picture = SHIP_SAILING_eventPicture
	
	trigger = {
		has_country_flag = river_party_start
	}
	
	mean_time_to_happen = {
		months = 72
	}
	
	option = {
		name = "flavor_esmari.21.a"
		add_adm_power = 10
	}
}
#DIP Bonus 1
country_event = {
	id = flavor_esmari.22
	title = flavor_esmari.22.t
	desc = flavor_esmari.22.d
	picture = SHIP_SAILING_eventPicture
	
	trigger = {
		has_country_flag = river_party_start
	}
	
	mean_time_to_happen = {
		months = 72
	}
	
	option = {
		name = "flavor_esmari.22.a"
		add_dip_power = 10
	}
}
#MIL Bonus 1
country_event = {
	id = flavor_esmari.23
	title = flavor_esmari.23.t
	desc = flavor_esmari.23.d
	picture = SHIP_SAILING_eventPicture
	
	trigger = {
		has_country_flag = river_party_start
	}
	
	mean_time_to_happen = {
		months = 72
	}
	
	option = {
		name = "flavor_esmari.23.a"
		add_mil_power = 10
	}
}
#ADM bonus 2
country_event = {
	id = flavor_esmari.24
	title = flavor_esmari.24.t
	desc = flavor_esmari.24.d
	picture = SHIP_SAILING_eventPicture
	
	trigger = {
		has_country_flag = river_party_start
	}
	
	mean_time_to_happen = {
		months = 72
	}
	
	option = {
		name = "flavor_esmari.24.a"
		add_adm_power = 30
	}
}
#DIP bonus 2
country_event = {
	id = flavor_esmari.25
	title = flavor_esmari.25.t
	desc = flavor_esmari.25.d
	picture = SHIP_SAILING_eventPicture
	
	trigger = {
		has_country_flag = river_party_start
	}
	
	mean_time_to_happen = {
		months = 72
	}
	
	option = {
		name = "flavor_esmari.25.a"
		add_dip_power = 30
	}
}
#MIL bonus 2
country_event = {
	id = flavor_esmari.26
	title = flavor_esmari.26.t
	desc = flavor_esmari.26.d
	picture = SHIP_SAILING_eventPicture
	
	trigger = {
		has_country_flag = river_party_start
	}
	
	mean_time_to_happen = {
		months = 72
	}
	
	option = {
		name = "flavor_esmari.26.a"
		add_mil_power = 30
	}
}
#General lv 1
country_event = {
	id = flavor_esmari.27
	title = flavor_esmari.27.t
	desc = flavor_esmari.27.d
	picture = SHIP_SAILING_eventPicture
	
	trigger = {
		has_country_flag = river_party_start
	}
	
	mean_time_to_happen = {
		months = 72
	}
	
	option = {
		name = "flavor_esmari.27.a"
		create_general = {
			tradition = 50
		}
	}
}
#General lv 2
country_event = {
	id = flavor_esmari.28
	title = flavor_esmari.28.t
	desc = flavor_esmari.28.d
	picture = SHIP_SAILING_eventPicture
	
	trigger = {
		has_country_flag = river_party_start
		mil = 6
	}
	
	mean_time_to_happen = {
		months = 72
	}
	
	option = {
		name = "flavor_esmari.28.a"
		create_general = {
			tradition = 100
		}
	}
}
#Admiral lv 1
country_event = {
	id = flavor_esmari.29
	title = flavor_esmari.29.t
	desc = flavor_esmari.29.d
	picture = SHIP_SAILING_eventPicture
	
	trigger = {
		has_country_flag = river_party_start
		any_owned_province = {
			has_port = yes
		}
	}
	
	mean_time_to_happen = {
		months = 72
	}
	
	option = {
		name = "flavor_esmari.29.a"
		create_admiral = {
			tradition = 50
		}
	}
}
#Admiral lv 2
country_event = {
	id = flavor_esmari.30
	title = flavor_esmari.30.t
	desc = flavor_esmari.30.d
	picture = SHIP_SAILING_eventPicture
	
	trigger = {
		has_country_flag = river_party_start
		any_owned_province = {
			has_port = yes
		}
		dip = 6
	}
	
	mean_time_to_happen = {
		months = 72
	}
	
	option = {
		name = "flavor_esmari.30.a"
		create_admiral = {
			tradition = 100
		}
	}
}
#ADM malus 1
country_event = {
	id = flavor_esmari.31
	title = flavor_esmari.31.t
	desc = flavor_esmari.31.d
	picture = SHIP_SAILING_eventPicture
	
	trigger = {
		has_country_flag = river_party_start
	}
	
	mean_time_to_happen = {
		months = 72
	}
	
	option = {
		name = "flavor_esmari.31.a"
		add_adm_power = -10
	}
}
#DIP malus 1
country_event = {
	id = flavor_esmari.32
	title = flavor_esmari.32.t
	desc = flavor_esmari.32.d
	picture = SHIP_SAILING_eventPicture
	
	trigger = {
		has_country_flag = river_party_start
	}
	
	mean_time_to_happen = {
		months = 72
	}
	
	option = {
		name = "flavor_esmari.32.a"
		add_dip_power = -10
	}
}
#MIL malus 1
country_event = {
	id = flavor_esmari.33
	title = flavor_esmari.33.t
	desc = flavor_esmari.33.d
	picture = SHIP_SAILING_eventPicture
	
	trigger = {
		has_country_flag = river_party_start
	}
	
	mean_time_to_happen = {
		months = 72
	}
	
	option = {
		name = "flavor_esmari.33.a"
		add_mil_power = -10
	}
}
#ADM malus 2
country_event = {
	id = flavor_esmari.34
	title = flavor_esmari.34.t
	desc = flavor_esmari.34.d
	picture = SHIP_SAILING_eventPicture
	
	trigger = {
		has_country_flag = river_party_start
	}
	
	mean_time_to_happen = {
		months = 72
	}
	
	option = {
		name = "flavor_esmari.34.a"
		add_adm_power = -30
	}
}
#DIP malus 2
country_event = {
	id = flavor_esmari.35
	title = flavor_esmari.35.t
	desc = flavor_esmari.35.d
	picture = SHIP_SAILING_eventPicture
	
	trigger = {
		has_country_flag = river_party_start
	}
	
	mean_time_to_happen = {
		months = 72
	}
	
	option = {
		name = "flavor_esmari.35.a"
		add_dip_power = -30
	}
}
#MIL malus 2
country_event = {
	id = flavor_esmari.36
	title = flavor_esmari.36.t
	desc = flavor_esmari.36.d
	picture = SHIP_SAILING_eventPicture
	
	trigger = {
		has_country_flag = river_party_start
	}
	
	mean_time_to_happen = {
		months = 72
	}
	
	option = {
		name = "flavor_esmari.36.a"
		add_mil_power = -30
	}
}
#General killed
country_event = {
	id = flavor_esmari.37
	title = flavor_esmari.37.t
	desc = flavor_esmari.37.d
	picture = SHIP_SAILING_eventPicture
	
	trigger = {
		has_country_flag = river_party_start
		num_of_generals = 1
	}
	
	mean_time_to_happen = {
		months = 72
	}
	
	option = {
		name = "flavor_esmari.37.a"
		kill_leader = {
			type = general
		}
	}
}
#Admiral killed
country_event = {
	id = flavor_esmari.38
	title = flavor_esmari.38.t
	desc = flavor_esmari.38.d
	picture = SHIP_SAILING_eventPicture
	
	trigger = {
		has_country_flag = river_party_start
		num_of_total_ports = 1
		num_of_admirals = 1
	}
	
	mean_time_to_happen = {
		months = 72
	}
	
	option = {
		name = "flavor_esmari.38.a"
		kill_leader = {
			type = admiral
		}
	}
}
#MPW bonus 1
country_event = {
	id = flavor_esmari.39
	title = flavor_esmari.39.t
	desc = flavor_esmari.39.d
	picture = SHIP_SAILING_eventPicture
	
	trigger = {
		has_country_flag = river_party_start
	}
	
	mean_time_to_happen = {
		months = 72
	}
	
	option = {
		name = "flavor_esmari.39.a"
		add_yearly_manpower = 0.25
	}
}
#MPW bonus 2
country_event = {
	id = flavor_esmari.40
	title = flavor_esmari.40.t
	desc = flavor_esmari.40.d
	picture = SHIP_SAILING_eventPicture
	
	trigger = {
		has_country_flag = river_party_start
	}
	
	mean_time_to_happen = {
		months = 72
	}
	
	option = {
		name = "flavor_esmari.40.a"
		add_yearly_manpower = 0.75
	}
}
#MPW malus 1
country_event = {
	id = flavor_esmari.41
	title = flavor_esmari.41.t
	desc = flavor_esmari.41.d
	picture = SHIP_SAILING_eventPicture
	
	trigger = {
		has_country_flag = river_party_start
	}
	
	mean_time_to_happen = {
		months = 72
	}
	
	option = {
		name = "flavor_esmari.41.a"
		add_yearly_manpower = -0.25
	}
}
#MPW malus 2
country_event = {
	id = flavor_esmari.42
	title = flavor_esmari.42.t
	desc = flavor_esmari.42.d
	picture = SHIP_SAILING_eventPicture
	
	trigger = {
		has_country_flag = river_party_start
	}
	
	mean_time_to_happen = {
		months = 72
	}
	
	option = {
		name = "flavor_esmari.42.a"
		add_yearly_manpower = -0.75
	}
}
#Party ends
country_event = {
	id = flavor_esmari.43
	title = flavor_esmari.43.t
	desc = flavor_esmari.43.d
	picture = SHIP_SAILING_eventPicture
	
	is_triggered_only = yes
	
	option = {
		name = "flavor_esmari.43.a"
		clr_country_flag =  river_party_start 
		add_country_modifier = {
			name = river_party_aftermath
			duration = 7300
		}				

	}
}