
namespace = flavor_wesdam

#Laurens choosing between High Lorentish and West Damerian culture
country_event = {
	id = flavor_wesdam.1
	title = flavor_wesdam.1.t
	desc = flavor_wesdam.1.d
	picture = GOOD_WITH_MONARCH_eventPicture
	
	fire_only_once = yes
	
	trigger = {
		tag = A04
		
		has_ruler = "Laurens"
		dynasty = "Silmuna"
		
		NOT = { is_year = 1500 }
	}
	
	mean_time_to_happen = {
		months = 2
	}
	
	#High Lorentish culture is the future
	option = {
		name = flavor_wesdam.1.a
		
		set_ruler_culture = high_lorentish
		set_heir_culture = high_lorentish
		
		add_prestige = 20
		custom_tooltip = laurens_lorentish_tooltip
		
		every_country = {	# Rose Party members dislike Moon Party
			limit = {
				capital_scope = { region = lencenor_region }
				primary_culture = high_lorentish
			}
			add_opinion = { who = ROOT modifier = A04_laurens_rejected_high_lorentish }
		}
		hidden_effect = { set_country_flag = wesdam_lorent_path }
	}
	
	#Embrace the culture of my ancestors
	option = {
		name = flavor_wesdam.1.b
		
		custom_tooltip = laurens_damerian_tooltip
		set_ruler_culture = west_damerian
		set_heir_culture = west_damerian
		
		add_stability_or_adm_power = yes
		
		every_country = {	# Rose Party members dislike Moon Party
			limit = {
				capital_scope = { region = west_dameshead_region }
				primary_culture = west_damerian
			}
			add_opinion = { who = ROOT modifier = A04_laurens_rejected_west_damerian }
		}
		hidden_effect = { set_country_flag = wesdam_dameria_path }
		
	}

}
#Silmuna Education
country_event = {
	id = flavor_wesdam.2
	title = flavor_wesdam.2.t
	desc = flavor_wesdam.2.d
	picture = GOOD_WITH_MONARCH_eventPicture
	
	fire_only_once = yes
	
	is_triggered_only = yes
	
	trigger = {
		always = yes
	}
	
	option = {
		name = flavor_wesdam.2.a
		ai_chance = { factor = 50 }
		increase_ruler_adm_effect = yes
		add_ruler_personality = industrious_personality
	}
	
	option = {
		name = flavor_wesdam.2.b
		ai_chance = { factor = 50 }
		increase_ruler_mil_effect = yes
		add_ruler_personality = careful_personality
	}
}

#Silmuna Expertise
country_event = {
	id = flavor_wesdam.3
	title = flavor_wesdam.3.t
	desc = flavor_wesdam.3.d
	picture = GOOD_WITH_MONARCH_eventPicture
	
	fire_only_once = yes
	
	is_triggered_only = yes
	
	trigger = {
		always = yes
	}
	
	option = {
		name = flavor_wesdam.3.a
		ai_chance = { factor = 50 }
		increase_ruler_adm_effect = yes
		add_ruler_personality = scholar_personality
	}
	
	option = {
		name = flavor_wesdam.3.b
		ai_chance = { factor = 50 }
		increase_ruler_mil_effect = yes
		add_ruler_personality = inspiring_leader_personality
	}
}

#Gabelaire declaration
country_event = {
	id = flavor_wesdam.4
	title = flavor_wesdam.4.t
	desc = flavor_wesdam.4.d
	picture = GOOD_WITH_MONARCH_eventPicture
	
	fire_only_once = yes
	
	is_triggered_only = yes
	
	trigger = {
		always = yes
	}
	
	option = {
		name = flavor_wesdam.4.a
		ai_chance = { factor = 100 }
		random_country = {
			limit = { has_country_flag = wesdam_partner }
			country_event = { id = flavor_wesdam.5 days = 60 random = 30 }
		}
	}
}

#Event they receive
country_event = {
	id = flavor_wesdam.5
	title = flavor_wesdam.5.t
	desc = flavor_wesdam.5.d
	picture = GOOD_WITH_MONARCH_eventPicture
	
	fire_only_once = yes
	
	is_triggered_only = yes
	
	trigger = {
		always = yes
	}
	
	# Accept PU
	option = {
		name = flavor_wesdam.5.a
		ai_chance = {
			factor = 100
			modifier = {
				factor = 0
				
				OR = {
					ROOT = { is_elector = yes }
					ROOT = { is_emperor = yes }
				}
			}
			
			modifier = {
				factor = 1.5
				
				FROM = { is_great_power = yes }
			}
			
			modifier = {
				factor = 5
				
				dynasty = FROM
			}
			
			modifier = {
				factor = 3
				
				has_regency = yes
			}
			
			modifier = {
				factor = 3
				
				FROM = { luck = yes }
			}
			
			modifier = {
				factor = 1.2
				
				trust = {
					who = FROM
					value = 60
				}
			}
			
			modifier = {
				factor = 1.2
				
				trust = {
					who = FROM
					value = 70
				}
			}
			
			modifier = {
				factor = 1.2
				
				trust = {
					who = FROM
					value = 85
				}
			}
		}
		hidden_effect = { FROM = { set_country_flag = accepted_pu } }
		FROM = { country_event = { id = flavor_wesdam.6 days = 30 } }
	}
	
	# Refuse PU
	option = {
		name = flavor_wesdam.5.b
		ai_chance = { 
			factor = 100
			
			modifier = {
				factor = 0.5
				
				army_strength = {
					who = FROM
					value = 0.5
				}
			}
			
			modifier = {
				factor = 1.5
				
				is_great_power = yes
			}
			
			modifier = {
				factor = 8
				
				total_development = FROM	
			}
			
			modifier = {
				factor = 1.2
				
				NOT = {
					trust = {
					who = FROM
					value = 20
					}
				}
			}
			
			modifier = {
				factor = 1.2
				
				NOT = {
					trust = {
					who = FROM
					value = 40
					}
				}
			}
		}
		hidden_effect = { FROM = { set_country_flag = refused_pu } }
		FROM = { country_event = { id = flavor_wesdam.6 days = 30 } }
	}
}

#Last event
country_event = {
	id = flavor_wesdam.6
	title = flavor_wesdam.6.t
	desc = flavor_wesdam.6.d
	picture = GOOD_WITH_MONARCH_eventPicture
	
	fire_only_once = yes
	
	is_triggered_only = yes
	
	trigger = {
		always = yes
	}
	
	option = {
		name = flavor_wesdam.6.a
		ai_chance = { factor = 100 }
		trigger = { has_country_flag = accepted_pu }
		add_prestige = 15
		add_trust = {
			who = FROM
			value = 25
			mutual = yes
		}
		create_union = FROM
		hidden_effect = { clr_country_flag = accepted_pu }
	}
	
	option = {
		name = flavor_wesdam.6.b
		ai_chance = { factor = 100 }
		trigger = { has_country_flag = refused_pu }
		
		add_prestige = -15
		add_opinion = {
			modifier = opinion_spurned_pu
			who = FROM
		}
		add_trust = {
			who = FROM
			value = -20
			mutual = yes
		}
		add_casus_belli = {
			target = FROM
			type = cb_restore_personal_union
			months = 120
		}
		hidden_effect = { clr_country_flag = refused_pu }
	}
}
# Millenium Offer
country_event = {
	id = flavor_wesdam.7
	title = flavor_wesdam.7.t
	desc = flavor_wesdam.7.d
	picture = GOOD_WITH_MONARCH_eventPicture
	
	fire_only_once = yes
	
	is_triggered_only = yes
	
	trigger = {
		always = yes
	}
	
	option = {
		name = flavor_wesdam.7.a
		ai_chance = { factor = 100 }
		random_country = {
			limit = { has_country_flag = wesdam_partner }
			country_event = { id = flavor_wesdam.5 days = 60 random = 30 }
		}
	}
}

#Ask anbenncost annexation
country_event = {
	id = flavor_wesdam.8
	title = flavor_wesdam.8.t
	desc = flavor_wesdam.8.d
	picture = GOOD_WITH_MONARCH_eventPicture
	
	fire_only_once = yes
	
	is_triggered_only = yes
	
	trigger = {
		always = yes
	}
	
	option = {
		name = flavor_wesdam.8.a
		ai_chance = { factor = 100 }
		A38 = { country_event = { id = flavor_wesdam.9 days = 60 random = 30 } }
	}
}
# They accept or refuse
country_event = {
	id = flavor_wesdam.9
	title = flavor_wesdam.9.t
	desc = flavor_wesdam.9.d
	picture = GOOD_WITH_MONARCH_eventPicture
	
	fire_only_once = yes
	
	is_triggered_only = yes
	
	trigger = {
		always = yes
	}
	
	# Accept
	option = {
		name = flavor_wesdam.9.a
		ai_chance = { factor = 80 }
		FROM = {
			set_country_flag = accept_vas
			country_event = { id = flavor_wesdam.10 days = 10 }
		}
	}
	
	# Refuse
	option = {
		name = flavor_wesdam.9.b
		ai_chance = { 
			factor = 20 
			
			modifier = {
				factor = 4
				
				emperor = {
					alliance_with = ROOT
				}
			}
			
			modifier = {
				factor = 20
				
				num_of_owned_provinces_with = {
					value = 2
					
					is_core = ROOT
				}
			}
			
			modifier = {
				factor = 2
				
				any_ally = {
					is_elector = yes
				}
			}
		}
		FROM = {
			set_country_flag = refuse_vas
			country_event = { id = flavor_wesdam.10 days = 10 }
		}
	}
}
#Their response
country_event = {
	id = flavor_wesdam.10
	title = flavor_wesdam.10.t
	desc = flavor_wesdam.10.d
	picture = GOOD_WITH_MONARCH_eventPicture
	
	fire_only_once = yes
	
	is_triggered_only = yes
	
	trigger = {
		always = yes
	}
	
	option = {
		name = flavor_wesdam.10.a
		ai_chance = { factor = 100 }
		trigger = { has_country_flag = accept_vas }
		
		add_prestige = 15
		add_stability_or_adm_power = yes
		vassalize = A38
		hidden_effect = { clr_country_flag = accept_vas }
	}
	option = {
		name = flavor_wesdam.10.b
		ai_chance = { factor = 100 }
		trigger = { has_country_flag = refuse_vas }
		
		add_prestige = -20
		if = {
			limit = {
				8 = {
					NOT = { is_core = ROOT }
					NOT = { is_permanent_claim = ROOT }
				}
			}
			8 = {
				add_permanent_claim = ROOT
			}
		}
		hidden_effect = { clr_country_flag = refuse_vas }
	}
}
