namespace = jadd_empire

# Seat of the Court?
country_event = {
	id = jadd_empire.1
	title = jadd_empire.1.t
	desc = jadd_empire.1.d
	picture = COURT_eventPicture
	
	is_triggered_only = yes
	
	trigger = {
		has_reform = jadd_empire
		NOT = { has_country_flag = jaddari_static_court }
	}
	
	immediate = {
		jaddempire_remove_ruler_modifier = yes
		
		hidden_effect = { #To make it fire once every 20 years if the requirements are met
			
			if = {
				limit = {
					has_reform = jaddari_mobile_centralization
					OR = {
						NOT = { has_country_flag = jadd_empire_seat_of_court_moved }
						had_country_flag = {
							flag = jadd_empire_seat_of_court_moved
							days = 7290
						}
					}
				}
				clr_country_flag = jadd_empire_seat_of_court_moved
				country_event = {
					id = jadd_empire.1
					days = 7300
				}
				set_country_flag = jadd_empire_seat_of_court_moved
			}
		}
	}
	
	#Keep the court in its current location
	option = {
		name = jadd_empire.1.a
		trigger = { 
			any_owned_province = {
				has_province_modifier = jaddempire_court_seat
			}
		}
		capital_scope = {
			trigger_switch = {
				on_trigger = province_id
				
				8 = { ROOT = { add_ruler_modifier = { name = jaddempire_anbenncost_capital duration = -1 } jaddempire_change_leaning_west_massive = yes } }
				565 = { ROOT = { add_ruler_modifier = { name = jaddempire_brasan_capital duration = -1 } jaddempire_change_leaning_west_large = yes } }
				601 = { ROOT = { add_ruler_modifier = { name = jaddempire_bulwar_capital duration = -1 } jaddempire_change_leaning_west_medium = yes } }
				625 = { ROOT = { add_ruler_modifier = { name = jaddempire_jaddanzar_capital duration = -1 } jaddempire_change_leaning_west_medium = yes } }
				643 = { ROOT = { add_ruler_modifier = { name = jaddempire_azka_sur_capital duration = -1 } jaddempire_change_leaning_west_small = yes } }
				
				2909 = { ROOT = { add_ruler_modifier =  { name = jaddempire_religious_capital duration = -1 } } } #Neutral
				
				4411 = { ROOT = { add_ruler_modifier = { name = jaddempire_dhenijansar_capital duration = -1 } jaddempire_change_leaning_east_medium = yes } }
				4420 = { ROOT = { add_ruler_modifier = { name = jaddempire_sramaya_capital duration = -1 } jaddempire_change_leaning_east_medium = yes } }
				4500 = { ROOT = { add_ruler_modifier = { name = jaddempire_aizt_ralare_capital duration = -1 } jaddempire_change_leaning_east_large = yes } }
				4871 = { ROOT = { add_ruler_modifier = { name = jaddempire_tianlou_capital duration = -1 } jaddempire_change_leaning_east_massive = yes } }
			}
		}
		add_stability = -1
	}
	
	#Move the court to Azka-Sur
	option = {
		name = jadd_empire.1.b
		trigger = {
			NOT = { 643 = { has_province_modifier = jaddempire_court_seat } }
			owns_core_province = 643
			643 = { controlled_by = ROOT }
		}
		goto = 643
		
		if = {
			limit = { NOT = { capital = 643 } }
			jaddempire_move_court_minorities_from_to = {
				from = capital_scope
				province_id = 643
			}
		}
		jaddempire_move_court = { province_id = 643 }
		
		azka_sur_area = {
			limit = { owned_by = ROOT NOT = { has_province_modifier = jaddempire_court_seat } }
			add_province_modifier = {
				name = jaddempire_court_area
				duration = -1
			}
		}
		# upper_suran_area = {
			# limit = { owned_by = ROOT NOT = { has_province_modifier = jaddempire_court_seat } }
			# add_province_modifier = {
				# name = jaddempire_court_area
				# duration = -1
			# }
		# }
		# eduz_vacyn_area = {
			# limit = { owned_by = ROOT NOT = { has_province_modifier = jaddempire_court_seat } }
			# add_province_modifier = {
				# name = jaddempire_court_area
				# duration = -1
			# }
		# }
		# panuses_area = {
			# limit = { owned_by = ROOT NOT = { has_province_modifier = jaddempire_court_seat } }
			# add_province_modifier = {
				# name = jaddempire_court_area
				# duration = -1
			# }
		# }
		# grixek_area = {
			# limit = { owned_by = ROOT NOT = { has_province_modifier = jaddempire_court_seat } }
			# add_province_modifier = {
				# name = jaddempire_court_area
				# duration = -1
			# }
		# }
		# jikarzax_area = {
			# limit = { owned_by = ROOT NOT = { has_province_modifier = jaddempire_court_seat } }
			# add_province_modifier = {
				# name = jaddempire_court_area
				# duration = -1
			# }
		# }
	}
	
	#Move the court to Bulwar
	option = {
		name = jadd_empire.1.c
		trigger = {
			NOT = { 601 = { has_province_modifier = jaddempire_court_seat } }
			owns_core_province = 601
			601 = { controlled_by = ROOT }
		}
		goto = 601
		
		if = {
			limit = { NOT = { capital = 601 } }
			jaddempire_move_court_minorities_from_to = {
				from = capital_scope
				province_id = 601
			}
		}
		jaddempire_move_court = { province_id = 601 }
		
		bulwar_area = {
			limit = { owned_by = ROOT NOT = { has_province_modifier = jaddempire_court_seat } }
			add_province_modifier = {
				name = jaddempire_court_area
				duration = -1
			}
		}
		# west_naza_area = {
			# limit = { owned_by = ROOT NOT = { has_province_modifier = jaddempire_court_seat } }
			# add_province_modifier = {
				# name = jaddempire_court_area
				# duration = -1
			# }
		# }
		# harklum_area = {
			# limit = { owned_by = ROOT NOT = { has_province_modifier = jaddempire_court_seat } }
			# add_province_modifier = {
				# name = jaddempire_court_area
				# duration = -1
			# }
		# }
		# middle_suran_area = {
			# limit = { owned_by = ROOT NOT = { has_province_modifier = jaddempire_court_seat } }
			# add_province_modifier = {
				# name = jaddempire_court_area
				# duration = -1
			# }
		# }
	}
	
	#Move the court to religious capital
	option = {
		name = jadd_empire.1.e
		trigger = {
			NOT = { 2909 = { has_province_modifier = jaddempire_court_seat } }
			owns_core_province = 2909
			2909 = { controlled_by = ROOT }
		}
		goto = 2909
		
		if = {
			limit = { NOT = { capital = 2902 } }
			jaddempire_move_court_minorities_from_to = {
				from = capital_scope
				province_id = 2902
			}
		}
		jaddempire_move_court = { province_id = 2909 }
		
		far_east_salahad_area = {
			limit = { owned_by = ROOT NOT = { has_province_modifier = jaddempire_court_seat } }
			add_province_modifier = {
				name = jaddempire_court_area
				duration = -1
			}
		}
		# davharral_area = {
			# limit = { owned_by = ROOT NOT = { has_province_modifier = jaddempire_court_seat } }
			# add_province_modifier = {
				# name = jaddempire_court_area
				# duration = -1
			# }
		# }
	}
	
	#Move the court to Brasan
	option = {
		name = jadd_empire.1.f
		trigger = {
			NOT = { 565 = { has_province_modifier = jaddempire_court_seat } }
			owns_core_province = 565
			565 = { controlled_by = ROOT }
		}
		goto = 565
		
		if = {
			limit = { NOT = { capital = 565 } }
			jaddempire_move_court_minorities_from_to = {
				from = capital_scope
				province_id = 565
			}
		}
		jaddempire_move_court = { province_id = 565 }
		
		lower_brasan_area = {
			limit = { owned_by = ROOT NOT = { has_province_modifier = jaddempire_court_seat } }
			add_province_modifier = {
				name = jaddempire_court_area
				duration = -1
			}
		}
		# upper_brasan_area = {
			# limit = { owned_by = ROOT NOT = { has_province_modifier = jaddempire_court_seat } }
			# add_province_modifier = {
				# name = jaddempire_court_area
				# duration = -1
			# }
		# }
		# outer_brasan_area = {
			# limit = { owned_by = ROOT NOT = { has_province_modifier = jaddempire_court_seat } }
			# add_province_modifier = {
				# name = jaddempire_court_area
				# duration = -1
			# }
		# }
	}
	
	#Move the court to Anbenncost
	option = {
		name = jadd_empire.1.g
		trigger = {
			NOT = { 8 = { has_province_modifier = jaddempire_court_seat } }
			owns_core_province = 8
			8 = { controlled_by = ROOT }
		}
		goto = 8
		
		if = {
			limit = { NOT = { capital = 8 } }
			jaddempire_move_court_minorities_from_to = {
				from = capital_scope
				province_id = 8
			}
		}
		jaddempire_move_court = { province_id = 8 }
		
		east_damesear_area = {
			limit = { owned_by = ROOT NOT = { has_province_modifier = jaddempire_court_seat } }
			add_province_modifier = {
				name = jaddempire_court_area
				duration = -1
			}
		}
		# west_damesear_area = {
			# limit = { owned_by = ROOT NOT = { has_province_modifier = jaddempire_court_seat } }
			# add_province_modifier = {
				# name = jaddempire_court_area
				# duration = -1
			# }
		# }
	}
	
	#Move the court to Dhenijansar
	option = {
		name = jadd_empire.1.h
		trigger = {
			NOT = { 4411 = { has_province_modifier = jaddempire_court_seat } }
			owns_core_province = 4411
			4411 = { controlled_by = ROOT }
		}
		goto = 4411
		
		if = {
			limit = { NOT = { capital = 4411 } } 
			jaddempire_move_court_minorities_from_to = {
				from = capital_scope
				province_id = 4411
			}
		}
		jaddempire_move_court = { province_id = 4411 }
		
		inner_rahen_area = {
			limit = { owned_by = ROOT NOT = { has_province_modifier = jaddempire_court_seat } }
			add_province_modifier = {
				name = jaddempire_court_area
				duration = -1
			}
		}
		# upper_dhenbasana_area = {
			# limit = { owned_by = ROOT NOT = { has_province_modifier = jaddempire_court_seat } }
			# add_province_modifier = {
				# name = jaddempire_court_area
				# duration = -1
			# }
		# }
		# lower_dhenbasana_area = {
			# limit = { owned_by = ROOT NOT = { has_province_modifier = jaddempire_court_seat } }
			# add_province_modifier = {
				# name = jaddempire_court_area
				# duration = -1
			# }
		# }
		# rhamirta_area = {
			# limit = { owned_by = ROOT NOT = { has_province_modifier = jaddempire_court_seat } }
			# add_province_modifier = {
				# name = jaddempire_court_area
				# duration = -1
			# }
		# }
		# shenral_area = {
			# limit = { owned_by = ROOT NOT = { has_province_modifier = jaddempire_court_seat } }
			# add_province_modifier = {
				# name = jaddempire_court_area
				# duration = -1
			# }
		# }
		# satarsaya_area = {
			# limit = { owned_by = ROOT NOT = { has_province_modifier = jaddempire_court_seat } }
			# add_province_modifier = {
				# name = jaddempire_court_area
				# duration = -1
			# }
		# }
	}
	
	#Move the court to Sramaya
	option = {
		name = jadd_empire.1.i
		trigger = {
			NOT = { 4420 = { has_province_modifier = jaddempire_court_seat } }
			owns_core_province = 4420
			4420 = { controlled_by = ROOT }
			has_country_flag = deal_with_jyntas_struck
		}
		goto = 4420
		
		if = {
			limit = { NOT = { capital = 4420 } }
			jaddempire_move_court_minorities_from_to = {
				from = capital_scope
				province_id = 4420
			}
		}
		jaddempire_move_court = { province_id = 4420 }
		
		kharunyana_estuary_area = {
			limit = { owned_by = ROOT NOT = { has_province_modifier = jaddempire_court_seat } }
			add_province_modifier = {
				name = jaddempire_court_area
				duration = -1
			}
		}
		# dhenbasana_estuary_area = {
			# limit = { owned_by = ROOT NOT = { has_province_modifier = jaddempire_court_seat } }
			# add_province_modifier = {
				# name = jaddempire_court_area
				# duration = -1
			# }
		# }
		# reanthung_area = {
			# limit = { owned_by = ROOT NOT = { has_province_modifier = jaddempire_court_seat } }
			# add_province_modifier = {
				# name = jaddempire_court_area
				# duration = -1
			# }
		# }
		# li_btei_area = {
			# limit = { owned_by = ROOT NOT = { has_province_modifier = jaddempire_court_seat } }
			# add_province_modifier = {
				# name = jaddempire_court_area
				# duration = -1
			# }
		# }
		# khiraspid_area = {
			# limit = { owned_by = ROOT NOT = { has_province_modifier = jaddempire_court_seat } }
			# add_province_modifier = {
				# name = jaddempire_court_area
				# duration = -1
			# }
		# }
	}
	
	#Move the court to Aizt Ralare
	option = {
		name = jadd_empire.1.j
		trigger = {
			NOT = { 4500 = { has_province_modifier = jaddempire_court_seat } }
			owns_core_province = 4500
			4500 = { controlled_by = ROOT }
			has_country_flag = aizt_ralare_founded_flag
		}
		goto = 4500
		
		if = {
			limit = { NOT = { capital = 4500 } }
			jaddempire_move_court_minorities_from_to = {
				from = capital_scope
				province_id = 4500
			}
		}
		jaddempire_move_court = { province_id = 4500 }
		
		sarisung_area = {
			limit = { owned_by = ROOT NOT = { has_province_modifier = jaddempire_court_seat } }
			add_province_modifier = {
				name = jaddempire_court_area
				duration = -1
			}
		}
		# areanc25_area = {
			# limit = { owned_by = ROOT NOT = { has_province_modifier = jaddempire_court_seat } }
			# add_province_modifier = {
				# name = jaddempire_court_area
				# duration = -1
			# }
		# }
		# areanc17_area = {
			# limit = { owned_by = ROOT NOT = { has_province_modifier = jaddempire_court_seat } }
			# add_province_modifier = {
				# name = jaddempire_court_area
				# duration = -1
			# }
		# }
		# semphrerong_area = {
			# limit = { owned_by = ROOT NOT = { has_province_modifier = jaddempire_court_seat } }
			# add_province_modifier = {
				# name = jaddempire_court_area
				# duration = -1
			# }
		# }
		# khirnadhiman_area = {
			# limit = { owned_by = ROOT NOT = { has_province_modifier = jaddempire_court_seat } }
			# add_province_modifier = {
				# name = jaddempire_court_area
				# duration = -1
			# }
		# }
		# tughayasa_area = {
			# limit = { owned_by = ROOT NOT = { has_province_modifier = jaddempire_court_seat } }
			# add_province_modifier = {
				# name = jaddempire_court_area
				# duration = -1
			# }
		# }
		# areanc19_area = {
			# limit = { owned_by = ROOT NOT = { has_province_modifier = jaddempire_court_seat } }
			# add_province_modifier = {
				# name = jaddempire_court_area
				# duration = -1
			# }
		# }
	}
	
	#Move the court to Tianlou
	option = {
		name = jadd_empire.1.k
		trigger = {
			NOT = { 4871 = { has_province_modifier = jaddempire_court_seat } }
			owns_core_province = 4871
			4871 = { controlled_by = ROOT }
		}
		goto = 4871
		
		if = {
			limit = { NOT = { capital = 4871 } }
			jaddempire_move_court_minorities_from_to = {
				from = capital_scope
				province_id = 4871
			}
		}
		jaddempire_move_court = { province_id = 4871 }
		
		areanc96_area = {
			limit = { owned_by = ROOT NOT = { has_province_modifier = jaddempire_court_seat } }
			add_province_modifier = {
				name = jaddempire_court_area
				duration = -1
			}
		}
		# areanc99_area = {
			# limit = { owned_by = ROOT NOT = { has_province_modifier = jaddempire_court_seat } }
			# add_province_modifier = {
				# name = jaddempire_court_area
				# duration = -1
			# }
		# }
		# areanc98_area = {
			# limit = { owned_by = ROOT NOT = { has_province_modifier = jaddempire_court_seat } }
			# add_province_modifier = {
				# name = jaddempire_court_area
				# duration = -1
			# }
		# }
		# areanc97_area = {
			# limit = { owned_by = ROOT NOT = { has_province_modifier = jaddempire_court_seat } }
			# add_province_modifier = {
				# name = jaddempire_court_area
				# duration = -1
			# }
		# }
	}
	
	#Move the court to Jaddanzar
	option = {
		name = jadd_empire.1.l
		trigger = {
			NOT = { 625 = { has_province_modifier = jaddempire_court_seat } }
			owns_core_province = 625
			625 = { controlled_by = ROOT }
			has_country_flag = jaddanzar_founded_flag
		}
		goto = 625
		
		if = {
			limit = { NOT = { capital = 625 } }
			jaddempire_move_court_minorities_from_to = {
				from = capital_scope
				province_id = 625
			}
		}
		jaddempire_move_court = { province_id = 625 }
		
		sareyand_area = {
			limit = { owned_by = ROOT NOT = { has_province_modifier = jaddempire_court_seat } }
			add_province_modifier = {
				name = jaddempire_court_area
				duration = -1
			}
		}
		# harklum_area = {
			# limit = { owned_by = ROOT NOT = { has_province_modifier = jaddempire_court_seat } }
			# add_province_modifier = {
				# name = jaddempire_court_area
				# duration = -1
			# }
		# }
		# avamezan_area = {
			# limit = { owned_by = ROOT NOT = { has_province_modifier = jaddempire_court_seat } }
			# add_province_modifier = {
				# name = jaddempire_court_area
				# duration = -1
			# }
		# }
		# south_naza_area = {
			# limit = { owned_by = ROOT NOT = { has_province_modifier = jaddempire_court_seat } }
			# add_province_modifier = {
				# name = jaddempire_court_area
				# duration = -1
			# }
		# }
		# east_naza_area = {
			# limit = { owned_by = ROOT NOT = { has_province_modifier = jaddempire_court_seat } }
			# add_province_modifier = {
				# name = jaddempire_court_area
				# duration = -1
			# }
		# }
		# west_naza_area = {
			# limit = { owned_by = ROOT NOT = { has_province_modifier = jaddempire_court_seat } }
			# add_province_modifier = {
				# name = jaddempire_court_area
				# duration = -1
			# }
		# }
		# eduz_vacyn_area = {
			# limit = { owned_by = ROOT NOT = { has_province_modifier = jaddempire_court_seat } }
			# add_province_modifier = {
				# name = jaddempire_court_area
				# duration = -1
			# }
		# }
	}
}